Oct-02 15:54:21.438 [main] DEBUG nextflow.cli.Launcher - $> /Users/rolf/envs/nextflow run tutorial.nf
Oct-02 15:54:21.551 [main] INFO  nextflow.cli.CmdRun - N E X T F L O W  ~  version 0.31.1
Oct-02 15:54:21.560 [main] INFO  nextflow.cli.CmdRun - Launching `tutorial.nf` [stupefied_northcutt] - revision: 879c2a4453
Oct-02 15:54:21.627 [main] DEBUG nextflow.Session - Session uuid: 7760d3c9-0ae6-4c60-b166-9f886ab4e698
Oct-02 15:54:21.627 [main] DEBUG nextflow.Session - Run name: stupefied_northcutt
Oct-02 15:54:21.629 [main] DEBUG nextflow.Session - Executor pool size: 12
Oct-02 15:54:21.797 [main] DEBUG nextflow.cli.CmdRun - 
  Version: 0.31.1 build 4886
  Modified: 07-08-2018 15:53 UTC (17:53 CEST)
  System: Mac OS X 10.13.6
  Runtime: Groovy 2.4.15 on Java HotSpot(TM) 64-Bit Server VM 1.8.0_91-b14
  Encoding: UTF-8 (UTF-8)
  Process: 37969@Rolfs-MacBook-Pro.local [10.128.29.49]
  CPUs: 12 - Mem: 16 GB (63.6 MB) - Swap: 1 GB (993.5 MB)
Oct-02 15:54:21.804 [main] DEBUG nextflow.Session - Work-dir: /Users/rolf/ownCloud2/Scripts-CGE/nextflow/work [Mac OS X]
Oct-02 15:54:21.804 [main] DEBUG nextflow.Session - Script base path does not exist or is not a directory: /Users/rolf/ownCloud2/Scripts-CGE/nextflow/bin
Oct-02 15:54:21.881 [main] DEBUG nextflow.Session - Session start invoked
Oct-02 15:54:21.887 [main] DEBUG nextflow.processor.TaskDispatcher - Dispatcher > start
Oct-02 15:54:21.888 [main] DEBUG nextflow.script.ScriptRunner - > Script parsing
Oct-02 15:54:22.073 [main] DEBUG nextflow.script.ScriptRunner - > Launching execution
Oct-02 15:54:22.086 [main] DEBUG nextflow.file.DirWatcher - Watch service for path=/Users/rolf/ownCloud2/Scripts-CGE/nextflow/test3/; syntax=glob; pattern=*.staged_json; skipHidden=true; events=create
Oct-02 15:54:22.162 [main] DEBUG nextflow.processor.ProcessFactory - << taskConfig executor: null
Oct-02 15:54:22.162 [main] DEBUG nextflow.processor.ProcessFactory - >> processorType: 'local'
Oct-02 15:54:22.167 [main] DEBUG nextflow.executor.Executor - Initializing executor: local
Oct-02 15:54:22.169 [main] INFO  nextflow.executor.Executor - [warm up] executor > local
Oct-02 15:54:22.173 [main] DEBUG n.processor.LocalPollingMonitor - Creating local task monitor for executor 'local' > cpus=12; memory=16 GB; capacity=12; pollInterval=100ms; dumpInterval=5m
Oct-02 15:54:22.176 [main] DEBUG nextflow.processor.TaskDispatcher - Starting monitor: LocalPollingMonitor
Oct-02 15:54:22.177 [main] DEBUG n.processor.TaskPollingMonitor - >>> barrier register (monitor: local)
Oct-02 15:54:22.178 [main] DEBUG nextflow.executor.Executor - Invoke register for executor: local
Oct-02 15:54:22.240 [main] DEBUG nextflow.Session - >>> barrier register (process: readStagedFile)
Oct-02 15:54:22.242 [main] DEBUG nextflow.processor.TaskProcessor - Creating operator > readStagedFile -- maxForks: 12
Oct-02 15:54:22.271 [main] DEBUG nextflow.processor.ProcessFactory - << taskConfig executor: null
Oct-02 15:54:22.271 [main] DEBUG nextflow.processor.ProcessFactory - >> processorType: 'local'
Oct-02 15:54:22.271 [main] DEBUG nextflow.executor.Executor - Initializing executor: local
Oct-02 15:54:22.272 [main] DEBUG nextflow.Session - >>> barrier register (process: splitLetters)
Oct-02 15:54:22.272 [main] DEBUG nextflow.processor.TaskProcessor - Creating operator > splitLetters -- maxForks: 12
Oct-02 15:54:22.281 [main] DEBUG nextflow.processor.ProcessFactory - << taskConfig executor: null
Oct-02 15:54:22.281 [main] DEBUG nextflow.processor.ProcessFactory - >> processorType: 'local'
Oct-02 15:54:22.281 [main] DEBUG nextflow.executor.Executor - Initializing executor: local
Oct-02 15:54:22.282 [main] DEBUG nextflow.Session - >>> barrier register (process: convertToUpper)
Oct-02 15:54:22.282 [main] DEBUG nextflow.processor.TaskProcessor - Creating operator > convertToUpper -- maxForks: 12
Oct-02 15:54:22.297 [main] DEBUG nextflow.script.ScriptRunner - > Await termination 
Oct-02 15:54:22.297 [main] DEBUG nextflow.Session - Session await
Oct-02 15:54:22.461 [Task submitter] DEBUG nextflow.executor.LocalTaskHandler - Launch cmd line: /bin/bash -ue .command.run
Oct-02 15:54:22.466 [Task submitter] INFO  nextflow.Session - [54/9ab103] Submitted process > splitLetters
Oct-02 15:54:22.563 [Task monitor] DEBUG n.processor.TaskPollingMonitor - Task completed > TaskHandler[id: 1; name: splitLetters; status: COMPLETED; exit: 0; error: -; workDir: /Users/rolf/ownCloud2/Scripts-CGE/nextflow/work/54/9ab103f660ec8d91892dc30ba39dd5]
Oct-02 15:54:22.580 [Actor Thread 2] DEBUG nextflow.Session - <<< barrier arrive (process: splitLetters)
Oct-02 15:54:22.594 [Task submitter] DEBUG nextflow.executor.LocalTaskHandler - Launch cmd line: /bin/bash -ue .command.run
Oct-02 15:54:22.594 [Task submitter] INFO  nextflow.Session - [d2/855302] Submitted process > convertToUpper (1)
Oct-02 15:54:22.603 [Task submitter] DEBUG nextflow.executor.LocalTaskHandler - Launch cmd line: /bin/bash -ue .command.run
Oct-02 15:54:22.604 [Task submitter] INFO  nextflow.Session - [8f/5925fb] Submitted process > convertToUpper (2)
Oct-02 15:54:22.654 [Task monitor] DEBUG n.processor.TaskPollingMonitor - Task completed > TaskHandler[id: 2; name: convertToUpper (1); status: COMPLETED; exit: 0; error: -; workDir: /Users/rolf/ownCloud2/Scripts-CGE/nextflow/work/d2/855302077269f82cb1c97c9d12fd4c]
Oct-02 15:54:22.658 [Task monitor] DEBUG n.processor.TaskPollingMonitor - Task completed > TaskHandler[id: 3; name: convertToUpper (2); status: COMPLETED; exit: 0; error: -; workDir: /Users/rolf/ownCloud2/Scripts-CGE/nextflow/work/8f/5925fb8583ac7af24b8e5e82622244]
Oct-02 15:54:22.659 [Actor Thread 5] DEBUG nextflow.Session - <<< barrier arrive (process: convertToUpper)
Oct-02 15:54:42.114 [Task submitter] DEBUG nextflow.executor.LocalTaskHandler - Launch cmd line: /bin/bash -ue .command.run
Oct-02 15:54:42.114 [Task submitter] INFO  nextflow.Session - [4f/ace24e] Submitted process > readStagedFile (1)
Oct-02 15:54:42.150 [Task monitor] DEBUG n.processor.TaskPollingMonitor - Task completed > TaskHandler[id: 4; name: readStagedFile (1); status: COMPLETED; exit: 127; error: -; workDir: /Users/rolf/ownCloud2/Scripts-CGE/nextflow/work/4f/ace24edd7bbedd2bf04d9a218a6a97]
Oct-02 15:54:42.173 [Task monitor] ERROR nextflow.processor.TaskProcessor - Error executing process > 'readStagedFile (1)'

Caused by:
  Process `readStagedFile (1)` terminated with an error exit status (127)

Command executed:

  null

Command exit status:
  127

Command output:
  (empty)

Command error:
  .command.sh: line 2: null: command not found

Work dir:
  /Users/rolf/ownCloud2/Scripts-CGE/nextflow/work/4f/ace24edd7bbedd2bf04d9a218a6a97

Tip: when you have fixed the problem you can continue the execution appending to the nextflow command line the option `-resume`
Oct-02 15:54:42.175 [Task monitor] DEBUG nextflow.Session - Session aborted -- Cause: Process `readStagedFile (1)` terminated with an error exit status (127)
Oct-02 15:54:42.188 [Task monitor] DEBUG nextflow.Session - The following nodes are still active:
[process] readStagedFile
  status=ACTIVE
  port 0: (queue) OPEN  ; channel: in_channel
  port 1: (cntrl) -     ; channel: $

Oct-02 15:54:42.190 [main] DEBUG nextflow.Session - Session await > all process finished
Oct-02 15:54:42.190 [Task monitor] DEBUG n.processor.TaskPollingMonitor - <<< barrier arrives (monitor: local)
Oct-02 15:54:42.190 [main] DEBUG nextflow.Session - Session await > all barriers passed
Oct-02 15:54:42.201 [main] DEBUG nextflow.trace.StatsObserver - Workflow completed > WorkflowStats[succeedCount=3; failedCount=1; ignoredCount=0; cachedCount=0; succeedDuration=32ms; failedDuration=25ms; cachedDuration=0ms]
Oct-02 15:54:42.209 [main] DEBUG nextflow.CacheDB - Closing CacheDB done
Oct-02 15:54:42.224 [main] DEBUG nextflow.script.ScriptRunner - > Execution complete -- Goodbye
