Oct-02 16:07:42.066 [main] DEBUG nextflow.cli.Launcher - $> /Users/rolf/envs/nextflow run tutorial.nf
Oct-02 16:07:42.181 [main] INFO  nextflow.cli.CmdRun - N E X T F L O W  ~  version 0.31.1
Oct-02 16:07:42.191 [main] INFO  nextflow.cli.CmdRun - Launching `tutorial.nf` [suspicious_wozniak] - revision: e2c5fc042c
Oct-02 16:07:42.261 [main] DEBUG nextflow.Session - Session uuid: 704601aa-3721-4ce3-bcab-5efdc4e29b1a
Oct-02 16:07:42.261 [main] DEBUG nextflow.Session - Run name: suspicious_wozniak
Oct-02 16:07:42.263 [main] DEBUG nextflow.Session - Executor pool size: 12
Oct-02 16:07:42.439 [main] DEBUG nextflow.cli.CmdRun - 
  Version: 0.31.1 build 4886
  Modified: 07-08-2018 15:53 UTC (17:53 CEST)
  System: Mac OS X 10.13.6
  Runtime: Groovy 2.4.15 on Java HotSpot(TM) 64-Bit Server VM 1.8.0_91-b14
  Encoding: UTF-8 (UTF-8)
  Process: 38900@Rolfs-MacBook-Pro.local [10.128.29.49]
  CPUs: 12 - Mem: 16 GB (153.4 MB) - Swap: 1 GB (993.5 MB)
Oct-02 16:07:42.447 [main] DEBUG nextflow.Session - Work-dir: /Users/rolf/ownCloud2/Scripts-CGE/nextflow/work [Mac OS X]
Oct-02 16:07:42.447 [main] DEBUG nextflow.Session - Script base path does not exist or is not a directory: /Users/rolf/ownCloud2/Scripts-CGE/nextflow/bin
Oct-02 16:07:42.527 [main] DEBUG nextflow.Session - Session start invoked
Oct-02 16:07:42.533 [main] DEBUG nextflow.processor.TaskDispatcher - Dispatcher > start
Oct-02 16:07:42.533 [main] DEBUG nextflow.script.ScriptRunner - > Script parsing
Oct-02 16:07:42.752 [main] DEBUG nextflow.script.ScriptRunner - > Launching execution
Oct-02 16:07:42.764 [main] DEBUG nextflow.file.DirWatcher - Watch service for path=/Users/rolf/ownCloud2/Scripts-CGE/nextflow/test3/; syntax=glob; pattern=*.staged_json; skipHidden=true; events=create
Oct-02 16:07:42.843 [main] DEBUG nextflow.processor.ProcessFactory - << taskConfig executor: null
Oct-02 16:07:42.843 [main] DEBUG nextflow.processor.ProcessFactory - >> processorType: 'local'
Oct-02 16:07:42.847 [main] DEBUG nextflow.executor.Executor - Initializing executor: local
Oct-02 16:07:42.849 [main] INFO  nextflow.executor.Executor - [warm up] executor > local
Oct-02 16:07:42.853 [main] DEBUG n.processor.LocalPollingMonitor - Creating local task monitor for executor 'local' > cpus=12; memory=16 GB; capacity=12; pollInterval=100ms; dumpInterval=5m
Oct-02 16:07:42.857 [main] DEBUG nextflow.processor.TaskDispatcher - Starting monitor: LocalPollingMonitor
Oct-02 16:07:42.857 [main] DEBUG n.processor.TaskPollingMonitor - >>> barrier register (monitor: local)
Oct-02 16:07:42.859 [main] DEBUG nextflow.executor.Executor - Invoke register for executor: local
Oct-02 16:07:42.920 [main] DEBUG nextflow.Session - >>> barrier register (process: readStagedFile)
Oct-02 16:07:42.923 [main] DEBUG nextflow.processor.TaskProcessor - Creating operator > readStagedFile -- maxForks: 12
Oct-02 16:07:42.952 [main] DEBUG nextflow.processor.ProcessFactory - << taskConfig executor: null
Oct-02 16:07:42.953 [main] DEBUG nextflow.processor.ProcessFactory - >> processorType: 'local'
Oct-02 16:07:42.953 [main] DEBUG nextflow.executor.Executor - Initializing executor: local
Oct-02 16:07:42.954 [main] DEBUG nextflow.Session - >>> barrier register (process: testHash)
Oct-02 16:07:42.954 [main] DEBUG nextflow.processor.TaskProcessor - Creating operator > testHash -- maxForks: 12
Oct-02 16:07:42.962 [main] DEBUG nextflow.processor.ProcessFactory - << taskConfig executor: null
Oct-02 16:07:42.963 [main] DEBUG nextflow.processor.ProcessFactory - >> processorType: 'local'
Oct-02 16:07:42.963 [main] DEBUG nextflow.executor.Executor - Initializing executor: local
Oct-02 16:07:42.964 [main] DEBUG nextflow.Session - >>> barrier register (process: splitLetters)
Oct-02 16:07:42.964 [main] DEBUG nextflow.processor.TaskProcessor - Creating operator > splitLetters -- maxForks: 12
Oct-02 16:07:42.972 [main] DEBUG nextflow.processor.ProcessFactory - << taskConfig executor: null
Oct-02 16:07:42.973 [main] DEBUG nextflow.processor.ProcessFactory - >> processorType: 'local'
Oct-02 16:07:42.973 [main] DEBUG nextflow.executor.Executor - Initializing executor: local
Oct-02 16:07:42.974 [main] DEBUG nextflow.Session - >>> barrier register (process: convertToUpper)
Oct-02 16:07:42.974 [main] DEBUG nextflow.processor.TaskProcessor - Creating operator > convertToUpper -- maxForks: 12
Oct-02 16:07:42.988 [main] DEBUG nextflow.script.ScriptRunner - > Await termination 
Oct-02 16:07:42.988 [main] DEBUG nextflow.Session - Session await
Oct-02 16:07:43.145 [Task submitter] DEBUG nextflow.executor.LocalTaskHandler - Launch cmd line: /bin/bash -ue .command.run
Oct-02 16:07:43.150 [Task submitter] INFO  nextflow.Session - [6c/1ee3cc] Submitted process > splitLetters
Oct-02 16:07:43.243 [Task monitor] DEBUG n.processor.TaskPollingMonitor - Task completed > TaskHandler[id: 1; name: splitLetters; status: COMPLETED; exit: 0; error: -; workDir: /Users/rolf/ownCloud2/Scripts-CGE/nextflow/work/6c/1ee3ccdd9fbcb1c42dc8335ccb5292]
Oct-02 16:07:43.261 [Actor Thread 2] DEBUG nextflow.Session - <<< barrier arrive (process: splitLetters)
Oct-02 16:07:43.275 [Task submitter] DEBUG nextflow.executor.LocalTaskHandler - Launch cmd line: /bin/bash -ue .command.run
Oct-02 16:07:43.276 [Task submitter] INFO  nextflow.Session - [a8/bb86c8] Submitted process > convertToUpper (2)
Oct-02 16:07:43.280 [Task submitter] DEBUG nextflow.executor.LocalTaskHandler - Launch cmd line: /bin/bash -ue .command.run
Oct-02 16:07:43.281 [Task submitter] INFO  nextflow.Session - [ff/2f5e16] Submitted process > convertToUpper (1)
Oct-02 16:07:43.343 [Task monitor] DEBUG n.processor.TaskPollingMonitor - Task completed > TaskHandler[id: 3; name: convertToUpper (2); status: COMPLETED; exit: 0; error: -; workDir: /Users/rolf/ownCloud2/Scripts-CGE/nextflow/work/a8/bb86c816f5cc6ceafdc3410080b76d]
Oct-02 16:07:43.346 [Task monitor] DEBUG n.processor.TaskPollingMonitor - Task completed > TaskHandler[id: 2; name: convertToUpper (1); status: COMPLETED; exit: 0; error: -; workDir: /Users/rolf/ownCloud2/Scripts-CGE/nextflow/work/ff/2f5e167458a384902655793753188d]
Oct-02 16:07:43.348 [Actor Thread 5] DEBUG nextflow.Session - <<< barrier arrive (process: convertToUpper)
Oct-02 16:08:02.790 [Task submitter] INFO  nextflow.Session - [33/3ff78f] Submitted process > readStagedFile (1)
Oct-02 16:08:02.799 [Task monitor] DEBUG n.processor.TaskPollingMonitor - Task completed > TaskHandler[id: 4; name: readStagedFile (1); status: COMPLETED; exit: -; error: -; workDir: /Users/rolf/ownCloud2/Scripts-CGE/nextflow/work/33/3ff78fe30f09184734278ae33e07e3]
Oct-02 16:08:02.808 [Task submitter] DEBUG nextflow.executor.LocalTaskHandler - Launch cmd line: /bin/bash -ue .command.run
Oct-02 16:08:02.809 [Task submitter] INFO  nextflow.Session - [25/032200] Submitted process > testHash (1)
Oct-02 16:08:02.842 [Task monitor] DEBUG n.processor.TaskPollingMonitor - Task completed > TaskHandler[id: 5; name: testHash (1); status: COMPLETED; exit: 0; error: -; workDir: /Users/rolf/ownCloud2/Scripts-CGE/nextflow/work/25/03220091234f3780d74663a883722b]
Oct-02 16:08:23.685 [SIGINT handler] DEBUG nextflow.Session - Session aborted -- Cause: SIGINT
Oct-02 16:08:23.699 [SIGINT handler] DEBUG nextflow.Session - The following nodes are still active:
[process] readStagedFile
  status=ACTIVE
  port 0: (queue) OPEN  ; channel: in_channel
  port 1: (cntrl) -     ; channel: $

[process] testHash
  status=ACTIVE
  port 0: (queue) OPEN  ; channel: file1
  port 1: (queue) OPEN  ; channel: file2
  port 2: (cntrl) -     ; channel: $

Oct-02 16:08:23.700 [Task monitor] DEBUG n.processor.TaskPollingMonitor - <<< barrier arrives (monitor: local)
Oct-02 16:08:23.701 [main] DEBUG nextflow.Session - Session await > all process finished
Oct-02 16:08:23.701 [main] DEBUG nextflow.Session - Session await > all barriers passed
Oct-02 16:08:23.712 [main] DEBUG nextflow.trace.StatsObserver - Workflow completed > WorkflowStats[succeedCount=5; failedCount=0; ignoredCount=0; cachedCount=0; succeedDuration=14ms; failedDuration=0ms; cachedDuration=0ms]
Oct-02 16:08:23.720 [main] DEBUG nextflow.CacheDB - Closing CacheDB done
Oct-02 16:08:23.736 [main] DEBUG nextflow.script.ScriptRunner - > Execution complete -- Goodbye
