Oct-02 16:05:06.038 [main] DEBUG nextflow.cli.Launcher - $> /Users/rolf/envs/nextflow run tutorial.nf
Oct-02 16:05:06.148 [main] INFO  nextflow.cli.CmdRun - N E X T F L O W  ~  version 0.31.1
Oct-02 16:05:06.158 [main] INFO  nextflow.cli.CmdRun - Launching `tutorial.nf` [elegant_lalande] - revision: 8cada68f8f
Oct-02 16:05:06.228 [main] DEBUG nextflow.Session - Session uuid: 6764edc6-8cf7-4315-8575-5a77aec12fe5
Oct-02 16:05:06.228 [main] DEBUG nextflow.Session - Run name: elegant_lalande
Oct-02 16:05:06.229 [main] DEBUG nextflow.Session - Executor pool size: 12
Oct-02 16:05:06.412 [main] DEBUG nextflow.cli.CmdRun - 
  Version: 0.31.1 build 4886
  Modified: 07-08-2018 15:53 UTC (17:53 CEST)
  System: Mac OS X 10.13.6
  Runtime: Groovy 2.4.15 on Java HotSpot(TM) 64-Bit Server VM 1.8.0_91-b14
  Encoding: UTF-8 (UTF-8)
  Process: 38692@Rolfs-MacBook-Pro.local [10.128.29.49]
  CPUs: 12 - Mem: 16 GB (81 MB) - Swap: 1 GB (993.5 MB)
Oct-02 16:05:06.419 [main] DEBUG nextflow.Session - Work-dir: /Users/rolf/ownCloud2/Scripts-CGE/nextflow/work [Mac OS X]
Oct-02 16:05:06.419 [main] DEBUG nextflow.Session - Script base path does not exist or is not a directory: /Users/rolf/ownCloud2/Scripts-CGE/nextflow/bin
Oct-02 16:05:06.488 [main] DEBUG nextflow.Session - Session start invoked
Oct-02 16:05:06.493 [main] DEBUG nextflow.processor.TaskDispatcher - Dispatcher > start
Oct-02 16:05:06.494 [main] DEBUG nextflow.script.ScriptRunner - > Script parsing
Oct-02 16:05:06.678 [main] DEBUG nextflow.script.ScriptRunner - > Launching execution
Oct-02 16:05:06.688 [main] DEBUG nextflow.file.DirWatcher - Watch service for path=/Users/rolf/ownCloud2/Scripts-CGE/nextflow/test3/; syntax=glob; pattern=*.staged_json; skipHidden=true; events=create
Oct-02 16:05:06.761 [main] DEBUG nextflow.processor.ProcessFactory - << taskConfig executor: null
Oct-02 16:05:06.761 [main] DEBUG nextflow.processor.ProcessFactory - >> processorType: 'local'
Oct-02 16:05:06.765 [main] DEBUG nextflow.executor.Executor - Initializing executor: local
Oct-02 16:05:06.767 [main] INFO  nextflow.executor.Executor - [warm up] executor > local
Oct-02 16:05:06.770 [main] DEBUG n.processor.LocalPollingMonitor - Creating local task monitor for executor 'local' > cpus=12; memory=16 GB; capacity=12; pollInterval=100ms; dumpInterval=5m
Oct-02 16:05:06.774 [main] DEBUG nextflow.processor.TaskDispatcher - Starting monitor: LocalPollingMonitor
Oct-02 16:05:06.774 [main] DEBUG n.processor.TaskPollingMonitor - >>> barrier register (monitor: local)
Oct-02 16:05:06.775 [main] DEBUG nextflow.executor.Executor - Invoke register for executor: local
Oct-02 16:05:06.833 [main] DEBUG nextflow.Session - >>> barrier register (process: readStagedFile)
Oct-02 16:05:06.835 [main] DEBUG nextflow.processor.TaskProcessor - Creating operator > readStagedFile -- maxForks: 12
Oct-02 16:05:06.858 [main] DEBUG nextflow.processor.ProcessFactory - << taskConfig executor: null
Oct-02 16:05:06.858 [main] DEBUG nextflow.processor.ProcessFactory - >> processorType: 'local'
Oct-02 16:05:06.858 [main] DEBUG nextflow.executor.Executor - Initializing executor: local
Oct-02 16:05:06.859 [main] DEBUG nextflow.Session - >>> barrier register (process: testHash)
Oct-02 16:05:06.859 [main] DEBUG nextflow.processor.TaskProcessor - Creating operator > testHash -- maxForks: 12
Oct-02 16:05:06.865 [main] DEBUG nextflow.processor.ProcessFactory - << taskConfig executor: null
Oct-02 16:05:06.866 [main] DEBUG nextflow.processor.ProcessFactory - >> processorType: 'local'
Oct-02 16:05:06.866 [main] DEBUG nextflow.executor.Executor - Initializing executor: local
Oct-02 16:05:06.866 [main] DEBUG nextflow.Session - >>> barrier register (process: splitLetters)
Oct-02 16:05:06.866 [main] DEBUG nextflow.processor.TaskProcessor - Creating operator > splitLetters -- maxForks: 12
Oct-02 16:05:06.871 [main] DEBUG nextflow.processor.ProcessFactory - << taskConfig executor: null
Oct-02 16:05:06.872 [main] DEBUG nextflow.processor.ProcessFactory - >> processorType: 'local'
Oct-02 16:05:06.872 [main] DEBUG nextflow.executor.Executor - Initializing executor: local
Oct-02 16:05:06.873 [main] DEBUG nextflow.Session - >>> barrier register (process: convertToUpper)
Oct-02 16:05:06.873 [main] DEBUG nextflow.processor.TaskProcessor - Creating operator > convertToUpper -- maxForks: 12
Oct-02 16:05:06.884 [main] DEBUG nextflow.script.ScriptRunner - > Await termination 
Oct-02 16:05:06.884 [main] DEBUG nextflow.Session - Session await
Oct-02 16:05:07.023 [Task submitter] DEBUG nextflow.executor.LocalTaskHandler - Launch cmd line: /bin/bash -ue .command.run
Oct-02 16:05:07.027 [Task submitter] INFO  nextflow.Session - [1c/cab039] Submitted process > splitLetters
Oct-02 16:05:07.119 [Task monitor] DEBUG n.processor.TaskPollingMonitor - Task completed > TaskHandler[id: 1; name: splitLetters; status: COMPLETED; exit: 0; error: -; workDir: /Users/rolf/ownCloud2/Scripts-CGE/nextflow/work/1c/cab0397afba14d110fb3d97c8736b7]
Oct-02 16:05:07.135 [Actor Thread 2] DEBUG nextflow.Session - <<< barrier arrive (process: splitLetters)
Oct-02 16:05:07.148 [Task submitter] DEBUG nextflow.executor.LocalTaskHandler - Launch cmd line: /bin/bash -ue .command.run
Oct-02 16:05:07.148 [Task submitter] INFO  nextflow.Session - [a3/0d4f52] Submitted process > convertToUpper (2)
Oct-02 16:05:07.152 [Task submitter] DEBUG nextflow.executor.LocalTaskHandler - Launch cmd line: /bin/bash -ue .command.run
Oct-02 16:05:07.152 [Task submitter] INFO  nextflow.Session - [dd/3c858b] Submitted process > convertToUpper (1)
Oct-02 16:05:07.212 [Task monitor] DEBUG n.processor.TaskPollingMonitor - Task completed > TaskHandler[id: 3; name: convertToUpper (2); status: COMPLETED; exit: 0; error: -; workDir: /Users/rolf/ownCloud2/Scripts-CGE/nextflow/work/a3/0d4f525aefcf7e9311a73de221c415]
Oct-02 16:05:07.216 [Task monitor] DEBUG n.processor.TaskPollingMonitor - Task completed > TaskHandler[id: 2; name: convertToUpper (1); status: COMPLETED; exit: 0; error: -; workDir: /Users/rolf/ownCloud2/Scripts-CGE/nextflow/work/dd/3c858b9d02ccb6b4e596e2df0bd7e8]
Oct-02 16:05:07.217 [Actor Thread 5] DEBUG nextflow.Session - <<< barrier arrive (process: convertToUpper)
Oct-02 16:05:36.707 [Task submitter] INFO  nextflow.Session - [4c/4f9ab2] Submitted process > readStagedFile (1)
Oct-02 16:05:36.714 [Task monitor] DEBUG n.processor.TaskPollingMonitor - Task completed > TaskHandler[id: 4; name: readStagedFile (1); status: COMPLETED; exit: -; error: -; workDir: /Users/rolf/ownCloud2/Scripts-CGE/nextflow/work/4c/4f9ab2d3da764ad36abcaa91474d08]
Oct-02 16:05:36.721 [Task submitter] DEBUG nextflow.executor.LocalTaskHandler - Launch cmd line: /bin/bash -ue .command.run
Oct-02 16:05:36.721 [Task submitter] INFO  nextflow.Session - [79/0d7517] Submitted process > testHash (1)
Oct-02 16:05:36.756 [Task monitor] DEBUG n.processor.TaskPollingMonitor - Task completed > TaskHandler[id: 5; name: testHash (1); status: COMPLETED; exit: 0; error: -; workDir: /Users/rolf/ownCloud2/Scripts-CGE/nextflow/work/79/0d75174a45817d29da11897e2b61b4]
Oct-02 16:06:06.708 [Task submitter] INFO  nextflow.Session - [82/2c7396] Submitted process > readStagedFile (2)
Oct-02 16:06:06.711 [Task monitor] DEBUG n.processor.TaskPollingMonitor - Task completed > TaskHandler[id: 6; name: readStagedFile (2); status: COMPLETED; exit: -; error: -; workDir: /Users/rolf/ownCloud2/Scripts-CGE/nextflow/work/82/2c73966afc8efd2229ac8bfab413cb]
Oct-02 16:06:06.716 [Task submitter] DEBUG nextflow.executor.LocalTaskHandler - Launch cmd line: /bin/bash -ue .command.run
Oct-02 16:06:06.716 [Task submitter] INFO  nextflow.Session - [f2/73b2f7] Submitted process > testHash (2)
Oct-02 16:06:06.760 [Task monitor] DEBUG n.processor.TaskPollingMonitor - Task completed > TaskHandler[id: 7; name: testHash (2); status: COMPLETED; exit: 0; error: -; workDir: /Users/rolf/ownCloud2/Scripts-CGE/nextflow/work/f2/73b2f7c77ae601c1f08c41704c7804]
Oct-02 16:06:14.812 [SIGINT handler] DEBUG nextflow.Session - Session aborted -- Cause: SIGINT
Oct-02 16:06:14.825 [SIGINT handler] DEBUG nextflow.Session - The following nodes are still active:
[process] readStagedFile
  status=ACTIVE
  port 0: (queue) OPEN  ; channel: in_channel
  port 1: (cntrl) -     ; channel: $

[process] testHash
  status=ACTIVE
  port 0: (queue) OPEN  ; channel: file1
  port 1: (queue) OPEN  ; channel: file2
  port 2: (cntrl) -     ; channel: $

Oct-02 16:06:14.826 [Task monitor] DEBUG n.processor.TaskPollingMonitor - <<< barrier arrives (monitor: local)
Oct-02 16:06:14.827 [main] DEBUG nextflow.Session - Session await > all process finished
Oct-02 16:06:14.827 [main] DEBUG nextflow.Session - Session await > all barriers passed
Oct-02 16:06:14.839 [main] DEBUG nextflow.trace.StatsObserver - Workflow completed > WorkflowStats[succeedCount=7; failedCount=0; ignoredCount=0; cachedCount=0; succeedDuration=36ms; failedDuration=0ms; cachedDuration=0ms]
Oct-02 16:06:14.847 [main] DEBUG nextflow.CacheDB - Closing CacheDB done
Oct-02 16:06:14.861 [main] DEBUG nextflow.script.ScriptRunner - > Execution complete -- Goodbye
