Oct-02 16:01:01.269 [main] DEBUG nextflow.cli.Launcher - $> /Users/rolf/envs/nextflow run tutorial.nf
Oct-02 16:01:01.396 [main] INFO  nextflow.cli.CmdRun - N E X T F L O W  ~  version 0.31.1
Oct-02 16:01:01.406 [main] INFO  nextflow.cli.CmdRun - Launching `tutorial.nf` [disturbed_koch] - revision: d82a89f927
Oct-02 16:01:01.481 [main] DEBUG nextflow.Session - Session uuid: 277291f5-f952-4cd2-a428-f00256b951a3
Oct-02 16:01:01.481 [main] DEBUG nextflow.Session - Run name: disturbed_koch
Oct-02 16:01:01.482 [main] DEBUG nextflow.Session - Executor pool size: 12
Oct-02 16:01:01.503 [main] DEBUG nextflow.cli.CmdRun - 
  Version: 0.31.1 build 4886
  Modified: 07-08-2018 15:53 UTC (17:53 CEST)
  System: Mac OS X 10.13.6
  Runtime: Groovy 2.4.15 on Java HotSpot(TM) 64-Bit Server VM 1.8.0_91-b14
  Encoding: UTF-8 (UTF-8)
  Process: 38461@Rolfs-MacBook-Pro.local [10.16.156.95]
  CPUs: 12 - Mem: 16 GB (118.8 MB) - Swap: 1 GB (993.5 MB)
Oct-02 16:01:01.511 [main] DEBUG nextflow.Session - Work-dir: /Users/rolf/ownCloud2/Scripts-CGE/nextflow/work [Mac OS X]
Oct-02 16:01:01.511 [main] DEBUG nextflow.Session - Script base path does not exist or is not a directory: /Users/rolf/ownCloud2/Scripts-CGE/nextflow/bin
Oct-02 16:01:01.586 [main] DEBUG nextflow.Session - Session start invoked
Oct-02 16:01:01.591 [main] DEBUG nextflow.processor.TaskDispatcher - Dispatcher > start
Oct-02 16:01:01.592 [main] DEBUG nextflow.script.ScriptRunner - > Script parsing
Oct-02 16:01:01.797 [main] DEBUG nextflow.script.ScriptRunner - > Launching execution
Oct-02 16:01:01.808 [main] DEBUG nextflow.file.DirWatcher - Watch service for path=/Users/rolf/ownCloud2/Scripts-CGE/nextflow/test3/; syntax=glob; pattern=*.staged_json; skipHidden=true; events=create
Oct-02 16:01:01.879 [main] DEBUG nextflow.processor.ProcessFactory - << taskConfig executor: null
Oct-02 16:01:01.879 [main] DEBUG nextflow.processor.ProcessFactory - >> processorType: 'local'
Oct-02 16:01:01.884 [main] DEBUG nextflow.executor.Executor - Initializing executor: local
Oct-02 16:01:01.886 [main] INFO  nextflow.executor.Executor - [warm up] executor > local
Oct-02 16:01:01.889 [main] DEBUG n.processor.LocalPollingMonitor - Creating local task monitor for executor 'local' > cpus=12; memory=16 GB; capacity=12; pollInterval=100ms; dumpInterval=5m
Oct-02 16:01:01.892 [main] DEBUG nextflow.processor.TaskDispatcher - Starting monitor: LocalPollingMonitor
Oct-02 16:01:01.892 [main] DEBUG n.processor.TaskPollingMonitor - >>> barrier register (monitor: local)
Oct-02 16:01:01.894 [main] DEBUG nextflow.executor.Executor - Invoke register for executor: local
Oct-02 16:01:01.951 [main] DEBUG nextflow.Session - >>> barrier register (process: readStagedFile)
Oct-02 16:01:01.953 [main] DEBUG nextflow.processor.TaskProcessor - Creating operator > readStagedFile -- maxForks: 12
Oct-02 16:01:01.977 [main] DEBUG nextflow.processor.ProcessFactory - << taskConfig executor: null
Oct-02 16:01:01.977 [main] DEBUG nextflow.processor.ProcessFactory - >> processorType: 'local'
Oct-02 16:01:01.977 [main] DEBUG nextflow.executor.Executor - Initializing executor: local
Oct-02 16:01:01.978 [main] DEBUG nextflow.Session - >>> barrier register (process: testHash)
Oct-02 16:01:01.978 [main] DEBUG nextflow.processor.TaskProcessor - Creating operator > testHash -- maxForks: 12
Oct-02 16:01:01.986 [main] DEBUG nextflow.processor.ProcessFactory - << taskConfig executor: null
Oct-02 16:01:01.986 [main] DEBUG nextflow.processor.ProcessFactory - >> processorType: 'local'
Oct-02 16:01:01.986 [main] DEBUG nextflow.executor.Executor - Initializing executor: local
Oct-02 16:01:01.986 [main] DEBUG nextflow.Session - >>> barrier register (process: splitLetters)
Oct-02 16:01:01.987 [main] DEBUG nextflow.processor.TaskProcessor - Creating operator > splitLetters -- maxForks: 12
Oct-02 16:01:01.992 [main] DEBUG nextflow.processor.ProcessFactory - << taskConfig executor: null
Oct-02 16:01:01.993 [main] DEBUG nextflow.processor.ProcessFactory - >> processorType: 'local'
Oct-02 16:01:01.993 [main] DEBUG nextflow.executor.Executor - Initializing executor: local
Oct-02 16:01:01.994 [main] DEBUG nextflow.Session - >>> barrier register (process: convertToUpper)
Oct-02 16:01:01.994 [main] DEBUG nextflow.processor.TaskProcessor - Creating operator > convertToUpper -- maxForks: 12
Oct-02 16:01:02.005 [main] DEBUG nextflow.script.ScriptRunner - > Await termination 
Oct-02 16:01:02.005 [main] DEBUG nextflow.Session - Session await
Oct-02 16:01:02.145 [Task submitter] DEBUG nextflow.executor.LocalTaskHandler - Launch cmd line: /bin/bash -ue .command.run
Oct-02 16:01:02.149 [Task submitter] INFO  nextflow.Session - [f9/7af1f0] Submitted process > splitLetters
Oct-02 16:01:02.236 [Task monitor] DEBUG n.processor.TaskPollingMonitor - Task completed > TaskHandler[id: 1; name: splitLetters; status: COMPLETED; exit: 0; error: -; workDir: /Users/rolf/ownCloud2/Scripts-CGE/nextflow/work/f9/7af1f0eee5442e6d6bd3e5a49c94ff]
Oct-02 16:01:02.253 [Actor Thread 5] DEBUG nextflow.Session - <<< barrier arrive (process: splitLetters)
Oct-02 16:01:02.265 [Task submitter] DEBUG nextflow.executor.LocalTaskHandler - Launch cmd line: /bin/bash -ue .command.run
Oct-02 16:01:02.265 [Task submitter] INFO  nextflow.Session - [9a/414cca] Submitted process > convertToUpper (1)
Oct-02 16:01:02.269 [Task submitter] DEBUG nextflow.executor.LocalTaskHandler - Launch cmd line: /bin/bash -ue .command.run
Oct-02 16:01:02.269 [Task submitter] INFO  nextflow.Session - [9a/aa8bbc] Submitted process > convertToUpper (2)
Oct-02 16:01:02.324 [Task monitor] DEBUG n.processor.TaskPollingMonitor - Task completed > TaskHandler[id: 2; name: convertToUpper (1); status: COMPLETED; exit: 0; error: -; workDir: /Users/rolf/ownCloud2/Scripts-CGE/nextflow/work/9a/414ccae954e5ef3ea9c3fc3857c882]
Oct-02 16:01:02.329 [Task monitor] DEBUG n.processor.TaskPollingMonitor - Task completed > TaskHandler[id: 3; name: convertToUpper (2); status: COMPLETED; exit: 0; error: -; workDir: /Users/rolf/ownCloud2/Scripts-CGE/nextflow/work/9a/aa8bbce237febfab9221ff4eeeb111]
Oct-02 16:01:02.331 [Actor Thread 2] DEBUG nextflow.Session - <<< barrier arrive (process: convertToUpper)
Oct-02 16:01:21.831 [Task submitter] INFO  nextflow.Session - [a5/cf34ec] Submitted process > readStagedFile (1)
Oct-02 16:01:21.840 [Task monitor] DEBUG n.processor.TaskPollingMonitor - Task completed > TaskHandler[id: 4; name: readStagedFile (1); status: COMPLETED; exit: -; error: -; workDir: /Users/rolf/ownCloud2/Scripts-CGE/nextflow/work/a5/cf34ec252a4fe5836a27a34b9cf76c]
Oct-02 16:01:21.848 [Task submitter] DEBUG nextflow.executor.LocalTaskHandler - Launch cmd line: /bin/bash -ue .command.run
Oct-02 16:01:21.848 [Task submitter] INFO  nextflow.Session - [44/0a040e] Submitted process > testHash (1)
Oct-02 16:01:21.884 [Task monitor] DEBUG n.processor.TaskPollingMonitor - Task completed > TaskHandler[id: 5; name: testHash (1); status: COMPLETED; exit: 0; error: -; workDir: /Users/rolf/ownCloud2/Scripts-CGE/nextflow/work/44/0a040e99a6820d3b4c891a9ab03df0]
Oct-02 16:01:30.988 [SIGINT handler] DEBUG nextflow.Session - Session aborted -- Cause: SIGINT
Oct-02 16:01:31.002 [SIGINT handler] DEBUG nextflow.Session - The following nodes are still active:
[process] readStagedFile
  status=ACTIVE
  port 0: (queue) OPEN  ; channel: in_channel
  port 1: (cntrl) -     ; channel: $

[process] testHash
  status=ACTIVE
  port 0: (queue) OPEN  ; channel: in_hash
  port 1: (cntrl) -     ; channel: $

Oct-02 16:01:31.003 [Task monitor] DEBUG n.processor.TaskPollingMonitor - <<< barrier arrives (monitor: local)
Oct-02 16:01:31.004 [main] DEBUG nextflow.Session - Session await > all process finished
Oct-02 16:01:31.004 [main] DEBUG nextflow.Session - Session await > all barriers passed
Oct-02 16:01:31.016 [main] DEBUG nextflow.trace.StatsObserver - Workflow completed > WorkflowStats[succeedCount=5; failedCount=0; ignoredCount=0; cachedCount=0; succeedDuration=27ms; failedDuration=0ms; cachedDuration=0ms]
Oct-02 16:01:31.024 [main] DEBUG nextflow.CacheDB - Closing CacheDB done
Oct-02 16:01:31.039 [main] DEBUG nextflow.script.ScriptRunner - > Execution complete -- Goodbye
