Nov-02 15:58:41.067 [main] DEBUG nextflow.cli.Launcher - $> /Users/rolf/envs/nextflow run tutorial.nf
Nov-02 15:58:41.181 [main] INFO  nextflow.cli.CmdRun - N E X T F L O W  ~  version 0.31.1
Nov-02 15:58:41.193 [main] INFO  nextflow.cli.CmdRun - Launching `tutorial.nf` [tender_avogadro] - revision: b62d1c6cfd
Nov-02 15:58:41.271 [main] DEBUG nextflow.Session - Session uuid: 590e03e0-1af4-45a3-b826-681ac9f8d231
Nov-02 15:58:41.271 [main] DEBUG nextflow.Session - Run name: tender_avogadro
Nov-02 15:58:41.273 [main] DEBUG nextflow.Session - Executor pool size: 12
Nov-02 15:58:41.489 [main] DEBUG nextflow.cli.CmdRun - 
  Version: 0.31.1 build 4886
  Modified: 07-08-2018 15:53 UTC (17:53 CEST)
  System: Mac OS X 10.13.6
  Runtime: Groovy 2.4.15 on Java HotSpot(TM) 64-Bit Server VM 1.8.0_91-b14
  Encoding: UTF-8 (UTF-8)
  Process: 27795@Rolfs-MacBook-Pro.local [10.128.29.49]
  CPUs: 12 - Mem: 16 GB (945 MB) - Swap: 2 GB (1.4 GB)
Nov-02 15:58:41.496 [main] DEBUG nextflow.Session - Work-dir: /Users/rolf/ownCloud2/Scripts-CGE/nextflow/work [Mac OS X]
Nov-02 15:58:41.496 [main] DEBUG nextflow.Session - Script base path does not exist or is not a directory: /Users/rolf/ownCloud2/Scripts-CGE/nextflow/bin
Nov-02 15:58:41.592 [main] DEBUG nextflow.Session - Session start invoked
Nov-02 15:58:41.597 [main] DEBUG nextflow.processor.TaskDispatcher - Dispatcher > start
Nov-02 15:58:41.597 [main] DEBUG nextflow.script.ScriptRunner - > Script parsing
Nov-02 15:58:41.809 [main] DEBUG nextflow.script.ScriptRunner - > Launching execution
Nov-02 15:58:41.819 [main] DEBUG nextflow.file.DirWatcher - Watch service for path=/Users/rolf/ownCloud2/Scripts-CGE/nextflow/test3/; syntax=glob; pattern=*.staged_json; skipHidden=true; events=create
Nov-02 15:58:41.905 [main] DEBUG nextflow.processor.ProcessFactory - << taskConfig executor: null
Nov-02 15:58:41.905 [main] DEBUG nextflow.processor.ProcessFactory - >> processorType: 'local'
Nov-02 15:58:41.910 [main] DEBUG nextflow.executor.Executor - Initializing executor: local
Nov-02 15:58:41.912 [main] INFO  nextflow.executor.Executor - [warm up] executor > local
Nov-02 15:58:41.916 [main] DEBUG n.processor.LocalPollingMonitor - Creating local task monitor for executor 'local' > cpus=12; memory=16 GB; capacity=12; pollInterval=100ms; dumpInterval=5m
Nov-02 15:58:41.920 [main] DEBUG nextflow.processor.TaskDispatcher - Starting monitor: LocalPollingMonitor
Nov-02 15:58:41.921 [main] DEBUG n.processor.TaskPollingMonitor - >>> barrier register (monitor: local)
Nov-02 15:58:41.923 [main] DEBUG nextflow.executor.Executor - Invoke register for executor: local
Nov-02 15:58:41.987 [main] DEBUG nextflow.Session - >>> barrier register (process: readStagedFile)
Nov-02 15:58:41.990 [main] DEBUG nextflow.processor.TaskProcessor - Creating operator > readStagedFile -- maxForks: 12
Nov-02 15:58:42.018 [main] DEBUG nextflow.processor.ProcessFactory - << taskConfig executor: null
Nov-02 15:58:42.018 [main] DEBUG nextflow.processor.ProcessFactory - >> processorType: 'local'
Nov-02 15:58:42.018 [main] DEBUG nextflow.executor.Executor - Initializing executor: local
Nov-02 15:58:42.019 [main] DEBUG nextflow.Session - >>> barrier register (process: testHash)
Nov-02 15:58:42.019 [main] DEBUG nextflow.processor.TaskProcessor - Creating operator > testHash -- maxForks: 12
Nov-02 15:58:42.026 [main] DEBUG nextflow.processor.ProcessFactory - << taskConfig executor: null
Nov-02 15:58:42.026 [main] DEBUG nextflow.processor.ProcessFactory - >> processorType: 'local'
Nov-02 15:58:42.026 [main] DEBUG nextflow.executor.Executor - Initializing executor: local
Nov-02 15:58:42.027 [main] DEBUG nextflow.Session - >>> barrier register (process: splitLetters)
Nov-02 15:58:42.027 [main] DEBUG nextflow.processor.TaskProcessor - Creating operator > splitLetters -- maxForks: 12
Nov-02 15:58:42.033 [main] DEBUG nextflow.processor.ProcessFactory - << taskConfig executor: null
Nov-02 15:58:42.033 [main] DEBUG nextflow.processor.ProcessFactory - >> processorType: 'local'
Nov-02 15:58:42.034 [main] DEBUG nextflow.executor.Executor - Initializing executor: local
Nov-02 15:58:42.034 [main] DEBUG nextflow.Session - >>> barrier register (process: convertToUpper)
Nov-02 15:58:42.034 [main] DEBUG nextflow.processor.TaskProcessor - Creating operator > convertToUpper -- maxForks: 12
Nov-02 15:58:42.046 [main] DEBUG nextflow.script.ScriptRunner - > Await termination 
Nov-02 15:58:42.046 [main] DEBUG nextflow.Session - Session await
Nov-02 15:58:42.193 [Task submitter] DEBUG nextflow.executor.LocalTaskHandler - Launch cmd line: /bin/bash -ue .command.run
Nov-02 15:58:42.197 [Task submitter] INFO  nextflow.Session - [a2/2f6b9c] Submitted process > splitLetters
Nov-02 15:58:42.296 [Task monitor] DEBUG n.processor.TaskPollingMonitor - Task completed > TaskHandler[id: 1; name: splitLetters; status: COMPLETED; exit: 0; error: -; workDir: /Users/rolf/ownCloud2/Scripts-CGE/nextflow/work/a2/2f6b9c66da77f5f19350e9577bbea6]
Nov-02 15:58:42.311 [Actor Thread 5] DEBUG nextflow.Session - <<< barrier arrive (process: splitLetters)
Nov-02 15:58:42.324 [Task submitter] DEBUG nextflow.executor.LocalTaskHandler - Launch cmd line: /bin/bash -ue .command.run
Nov-02 15:58:42.325 [Task submitter] INFO  nextflow.Session - [52/96ad09] Submitted process > convertToUpper (2)
Nov-02 15:58:42.328 [Task submitter] DEBUG nextflow.executor.LocalTaskHandler - Launch cmd line: /bin/bash -ue .command.run
Nov-02 15:58:42.329 [Task submitter] INFO  nextflow.Session - [71/d930af] Submitted process > convertToUpper (1)
Nov-02 15:58:42.379 [Task monitor] DEBUG n.processor.TaskPollingMonitor - Task completed > TaskHandler[id: 3; name: convertToUpper (2); status: COMPLETED; exit: 0; error: -; workDir: /Users/rolf/ownCloud2/Scripts-CGE/nextflow/work/52/96ad097db6e135cc99e355fd737871]
Nov-02 15:58:42.383 [Task monitor] DEBUG n.processor.TaskPollingMonitor - Task completed > TaskHandler[id: 2; name: convertToUpper (1); status: COMPLETED; exit: 0; error: -; workDir: /Users/rolf/ownCloud2/Scripts-CGE/nextflow/work/71/d930af06108c5af4337e5c910d04d5]
Nov-02 15:58:42.385 [Actor Thread 2] DEBUG nextflow.Session - <<< barrier arrive (process: convertToUpper)
Nov-02 15:59:51.848 [Task submitter] INFO  nextflow.Session - [e7/56e240] Submitted process > readStagedFile (1)
Nov-02 15:59:51.859 [Task monitor] DEBUG n.processor.TaskPollingMonitor - Task completed > TaskHandler[id: 4; name: readStagedFile (1); status: COMPLETED; exit: -; error: -; workDir: /Users/rolf/ownCloud2/Scripts-CGE/nextflow/work/e7/56e240bd35bc9cc52a403a67e4813e]
Nov-02 15:59:51.866 [Task submitter] DEBUG nextflow.executor.LocalTaskHandler - Launch cmd line: /bin/bash -ue .command.run
Nov-02 15:59:51.867 [Task submitter] INFO  nextflow.Session - [ac/a25ac0] Submitted process > testHash (1)
Nov-02 15:59:51.905 [Task monitor] DEBUG n.processor.TaskPollingMonitor - Task completed > TaskHandler[id: 5; name: testHash (1); status: COMPLETED; exit: 0; error: -; workDir: /Users/rolf/ownCloud2/Scripts-CGE/nextflow/work/ac/a25ac028da588d337ece838af47145]
Nov-02 16:00:24.026 [SIGINT handler] DEBUG nextflow.Session - Session aborted -- Cause: SIGINT
Nov-02 16:00:24.038 [SIGINT handler] DEBUG nextflow.Session - The following nodes are still active:
[process] readStagedFile
  status=ACTIVE
  port 0: (queue) OPEN  ; channel: in_channel
  port 1: (cntrl) -     ; channel: $

[process] testHash
  status=ACTIVE
  port 0: (queue) OPEN  ; channel: file1
  port 1: (queue) OPEN  ; channel: file2
  port 2: (cntrl) -     ; channel: $

Nov-02 16:00:24.039 [Task monitor] DEBUG n.processor.TaskPollingMonitor - <<< barrier arrives (monitor: local)
Nov-02 16:00:24.040 [main] DEBUG nextflow.Session - Session await > all process finished
Nov-02 16:00:24.040 [main] DEBUG nextflow.Session - Session await > all barriers passed
Nov-02 16:00:24.051 [main] DEBUG nextflow.trace.StatsObserver - Workflow completed > WorkflowStats[succeedCount=5; failedCount=0; ignoredCount=0; cachedCount=0; succeedDuration=7ms; failedDuration=0ms; cachedDuration=0ms]
Nov-02 16:00:24.058 [main] DEBUG nextflow.CacheDB - Closing CacheDB done
Nov-02 16:00:24.072 [main] DEBUG nextflow.script.ScriptRunner - > Execution complete -- Goodbye
