Oct-02 15:59:37.645 [main] DEBUG nextflow.cli.Launcher - $> /Users/rolf/envs/nextflow run tutorial.nf
Oct-02 15:59:37.763 [main] INFO  nextflow.cli.CmdRun - N E X T F L O W  ~  version 0.31.1
Oct-02 15:59:37.773 [main] INFO  nextflow.cli.CmdRun - Launching `tutorial.nf` [fabulous_woese] - revision: 94b86fb054
Oct-02 15:59:37.844 [main] DEBUG nextflow.Session - Session uuid: c583778c-edba-45de-90f9-3f82f3f71a68
Oct-02 15:59:37.844 [main] DEBUG nextflow.Session - Run name: fabulous_woese
Oct-02 15:59:37.846 [main] DEBUG nextflow.Session - Executor pool size: 12
Oct-02 15:59:38.002 [main] DEBUG nextflow.cli.CmdRun - 
  Version: 0.31.1 build 4886
  Modified: 07-08-2018 15:53 UTC (17:53 CEST)
  System: Mac OS X 10.13.6
  Runtime: Groovy 2.4.15 on Java HotSpot(TM) 64-Bit Server VM 1.8.0_91-b14
  Encoding: UTF-8 (UTF-8)
  Process: 38330@Rolfs-MacBook-Pro.local [10.16.156.95]
  CPUs: 12 - Mem: 16 GB (117.2 MB) - Swap: 1 GB (993.5 MB)
Oct-02 15:59:38.010 [main] DEBUG nextflow.Session - Work-dir: /Users/rolf/ownCloud2/Scripts-CGE/nextflow/work [Mac OS X]
Oct-02 15:59:38.011 [main] DEBUG nextflow.Session - Script base path does not exist or is not a directory: /Users/rolf/ownCloud2/Scripts-CGE/nextflow/bin
Oct-02 15:59:38.083 [main] DEBUG nextflow.Session - Session start invoked
Oct-02 15:59:38.089 [main] DEBUG nextflow.processor.TaskDispatcher - Dispatcher > start
Oct-02 15:59:38.090 [main] DEBUG nextflow.script.ScriptRunner - > Script parsing
Oct-02 15:59:38.284 [main] DEBUG nextflow.script.ScriptRunner - > Launching execution
Oct-02 15:59:38.293 [main] DEBUG nextflow.file.DirWatcher - Watch service for path=/Users/rolf/ownCloud2/Scripts-CGE/nextflow/test3/; syntax=glob; pattern=*.staged_json; skipHidden=true; events=create
Oct-02 15:59:38.371 [main] DEBUG nextflow.processor.ProcessFactory - << taskConfig executor: null
Oct-02 15:59:38.371 [main] DEBUG nextflow.processor.ProcessFactory - >> processorType: 'local'
Oct-02 15:59:38.375 [main] DEBUG nextflow.executor.Executor - Initializing executor: local
Oct-02 15:59:38.376 [main] INFO  nextflow.executor.Executor - [warm up] executor > local
Oct-02 15:59:38.380 [main] DEBUG n.processor.LocalPollingMonitor - Creating local task monitor for executor 'local' > cpus=12; memory=16 GB; capacity=12; pollInterval=100ms; dumpInterval=5m
Oct-02 15:59:38.383 [main] DEBUG nextflow.processor.TaskDispatcher - Starting monitor: LocalPollingMonitor
Oct-02 15:59:38.384 [main] DEBUG n.processor.TaskPollingMonitor - >>> barrier register (monitor: local)
Oct-02 15:59:38.385 [main] DEBUG nextflow.executor.Executor - Invoke register for executor: local
Oct-02 15:59:38.447 [main] DEBUG nextflow.Session - >>> barrier register (process: readStagedFile)
Oct-02 15:59:38.449 [main] DEBUG nextflow.processor.TaskProcessor - Creating operator > readStagedFile -- maxForks: 12
Oct-02 15:59:38.473 [main] DEBUG nextflow.processor.ProcessFactory - << taskConfig executor: null
Oct-02 15:59:38.473 [main] DEBUG nextflow.processor.ProcessFactory - >> processorType: 'local'
Oct-02 15:59:38.473 [main] DEBUG nextflow.executor.Executor - Initializing executor: local
Oct-02 15:59:38.474 [main] DEBUG nextflow.Session - >>> barrier register (process: testHash)
Oct-02 15:59:38.474 [main] DEBUG nextflow.processor.TaskProcessor - Creating operator > testHash -- maxForks: 12
Oct-02 15:59:38.481 [main] DEBUG nextflow.processor.ProcessFactory - << taskConfig executor: null
Oct-02 15:59:38.481 [main] DEBUG nextflow.processor.ProcessFactory - >> processorType: 'local'
Oct-02 15:59:38.481 [main] DEBUG nextflow.executor.Executor - Initializing executor: local
Oct-02 15:59:38.482 [main] DEBUG nextflow.Session - >>> barrier register (process: splitLetters)
Oct-02 15:59:38.482 [main] DEBUG nextflow.processor.TaskProcessor - Creating operator > splitLetters -- maxForks: 12
Oct-02 15:59:38.488 [main] DEBUG nextflow.processor.ProcessFactory - << taskConfig executor: null
Oct-02 15:59:38.488 [main] DEBUG nextflow.processor.ProcessFactory - >> processorType: 'local'
Oct-02 15:59:38.489 [main] DEBUG nextflow.executor.Executor - Initializing executor: local
Oct-02 15:59:38.489 [main] DEBUG nextflow.Session - >>> barrier register (process: convertToUpper)
Oct-02 15:59:38.490 [main] DEBUG nextflow.processor.TaskProcessor - Creating operator > convertToUpper -- maxForks: 12
Oct-02 15:59:38.503 [main] DEBUG nextflow.script.ScriptRunner - > Await termination 
Oct-02 15:59:38.503 [main] DEBUG nextflow.Session - Session await
Oct-02 15:59:38.650 [Task submitter] DEBUG nextflow.executor.LocalTaskHandler - Launch cmd line: /bin/bash -ue .command.run
Oct-02 15:59:38.654 [Task submitter] INFO  nextflow.Session - [b4/3c9bcb] Submitted process > splitLetters
Oct-02 15:59:38.758 [Task monitor] DEBUG n.processor.TaskPollingMonitor - Task completed > TaskHandler[id: 1; name: splitLetters; status: COMPLETED; exit: 0; error: -; workDir: /Users/rolf/ownCloud2/Scripts-CGE/nextflow/work/b4/3c9bcbf087b90826dc3d8e9b65aa80]
Oct-02 15:59:38.777 [Actor Thread 2] DEBUG nextflow.Session - <<< barrier arrive (process: splitLetters)
Oct-02 15:59:38.789 [Task submitter] DEBUG nextflow.executor.LocalTaskHandler - Launch cmd line: /bin/bash -ue .command.run
Oct-02 15:59:38.790 [Task submitter] INFO  nextflow.Session - [76/238771] Submitted process > convertToUpper (2)
Oct-02 15:59:38.794 [Task submitter] DEBUG nextflow.executor.LocalTaskHandler - Launch cmd line: /bin/bash -ue .command.run
Oct-02 15:59:38.795 [Task submitter] INFO  nextflow.Session - [a5/4a32d7] Submitted process > convertToUpper (1)
Oct-02 15:59:38.852 [Task monitor] DEBUG n.processor.TaskPollingMonitor - Task completed > TaskHandler[id: 3; name: convertToUpper (2); status: COMPLETED; exit: 0; error: -; workDir: /Users/rolf/ownCloud2/Scripts-CGE/nextflow/work/76/238771ed227e576488d0ed6b5ffa5b]
Oct-02 15:59:38.857 [Task monitor] DEBUG n.processor.TaskPollingMonitor - Task completed > TaskHandler[id: 2; name: convertToUpper (1); status: COMPLETED; exit: 0; error: -; workDir: /Users/rolf/ownCloud2/Scripts-CGE/nextflow/work/a5/4a32d732709eb54292316dc04d3ebd]
Oct-02 15:59:38.858 [Actor Thread 2] DEBUG nextflow.Session - <<< barrier arrive (process: convertToUpper)
Oct-02 15:59:48.317 [Task submitter] INFO  nextflow.Session - [d5/a7da70] Submitted process > readStagedFile (1)
Oct-02 15:59:48.326 [Task monitor] DEBUG n.processor.TaskPollingMonitor - Task completed > TaskHandler[id: 4; name: readStagedFile (1); status: COMPLETED; exit: -; error: -; workDir: /Users/rolf/ownCloud2/Scripts-CGE/nextflow/work/d5/a7da70460ac6448d07d33d35e41b24]
Oct-02 15:59:48.337 [Actor Thread 1] ERROR nextflow.processor.TaskProcessor - Error executing process > 'testHash (1)'

Caused by:
  No such property: file_1 for class: java.lang.String

Source block:
  """
  printf 'TEST HASH: ${in_hash.file_1}'
  """

Tip: view the complete command output by changing to the process work dir and entering the command `cat .command.out`
Oct-02 15:59:48.339 [Actor Thread 1] DEBUG nextflow.Session - Session aborted -- Cause: Process `null` script contains error(s)
Oct-02 15:59:48.351 [Actor Thread 1] DEBUG nextflow.Session - The following nodes are still active:
[process] readStagedFile
  status=ACTIVE
  port 0: (queue) OPEN  ; channel: in_channel
  port 1: (cntrl) -     ; channel: $

[process] testHash
  status=ACTIVE
  port 0: (queue) OPEN  ; channel: in_hash
  port 1: (cntrl) -     ; channel: $

Oct-02 15:59:48.352 [Task monitor] DEBUG n.processor.TaskPollingMonitor - <<< barrier arrives (monitor: local)
Oct-02 15:59:48.353 [main] DEBUG nextflow.Session - Session await > all process finished
Oct-02 15:59:48.353 [main] DEBUG nextflow.Session - Session await > all barriers passed
Oct-02 15:59:48.363 [main] DEBUG nextflow.trace.StatsObserver - Workflow completed > WorkflowStats[succeedCount=4; failedCount=0; ignoredCount=0; cachedCount=0; succeedDuration=6ms; failedDuration=0ms; cachedDuration=0ms]
Oct-02 15:59:48.371 [main] DEBUG nextflow.CacheDB - Closing CacheDB done
Oct-02 15:59:48.386 [main] DEBUG nextflow.script.ScriptRunner - > Execution complete -- Goodbye
