Oct-02 15:55:27.268 [main] DEBUG nextflow.cli.Launcher - $> /Users/rolf/envs/nextflow run tutorial.nf
Oct-02 15:55:27.384 [main] INFO  nextflow.cli.CmdRun - N E X T F L O W  ~  version 0.31.1
Oct-02 15:55:27.393 [main] INFO  nextflow.cli.CmdRun - Launching `tutorial.nf` [zen_gautier] - revision: 10cc7a2dcb
Oct-02 15:55:27.458 [main] DEBUG nextflow.Session - Session uuid: e34c0aa7-3045-444d-85be-7ad82d74c496
Oct-02 15:55:27.458 [main] DEBUG nextflow.Session - Run name: zen_gautier
Oct-02 15:55:27.459 [main] DEBUG nextflow.Session - Executor pool size: 12
Oct-02 15:55:27.479 [main] DEBUG nextflow.cli.CmdRun - 
  Version: 0.31.1 build 4886
  Modified: 07-08-2018 15:53 UTC (17:53 CEST)
  System: Mac OS X 10.13.6
  Runtime: Groovy 2.4.15 on Java HotSpot(TM) 64-Bit Server VM 1.8.0_91-b14
  Encoding: UTF-8 (UTF-8)
  Process: 38107@Rolfs-MacBook-Pro.local [10.128.29.49]
  CPUs: 12 - Mem: 16 GB (78.8 MB) - Swap: 1 GB (993.5 MB)
Oct-02 15:55:27.486 [main] DEBUG nextflow.Session - Work-dir: /Users/rolf/ownCloud2/Scripts-CGE/nextflow/work [Mac OS X]
Oct-02 15:55:27.486 [main] DEBUG nextflow.Session - Script base path does not exist or is not a directory: /Users/rolf/ownCloud2/Scripts-CGE/nextflow/bin
Oct-02 15:55:27.557 [main] DEBUG nextflow.Session - Session start invoked
Oct-02 15:55:27.563 [main] DEBUG nextflow.processor.TaskDispatcher - Dispatcher > start
Oct-02 15:55:27.563 [main] DEBUG nextflow.script.ScriptRunner - > Script parsing
Oct-02 15:55:27.758 [main] DEBUG nextflow.script.ScriptRunner - > Launching execution
Oct-02 15:55:27.769 [main] DEBUG nextflow.file.DirWatcher - Watch service for path=/Users/rolf/ownCloud2/Scripts-CGE/nextflow/test3/; syntax=glob; pattern=*.staged_json; skipHidden=true; events=create
Oct-02 15:55:27.843 [main] DEBUG nextflow.processor.ProcessFactory - << taskConfig executor: null
Oct-02 15:55:27.843 [main] DEBUG nextflow.processor.ProcessFactory - >> processorType: 'local'
Oct-02 15:55:27.847 [main] DEBUG nextflow.executor.Executor - Initializing executor: local
Oct-02 15:55:27.849 [main] INFO  nextflow.executor.Executor - [warm up] executor > local
Oct-02 15:55:27.853 [main] DEBUG n.processor.LocalPollingMonitor - Creating local task monitor for executor 'local' > cpus=12; memory=16 GB; capacity=12; pollInterval=100ms; dumpInterval=5m
Oct-02 15:55:27.856 [main] DEBUG nextflow.processor.TaskDispatcher - Starting monitor: LocalPollingMonitor
Oct-02 15:55:27.856 [main] DEBUG n.processor.TaskPollingMonitor - >>> barrier register (monitor: local)
Oct-02 15:55:27.858 [main] DEBUG nextflow.executor.Executor - Invoke register for executor: local
Oct-02 15:55:27.912 [main] DEBUG nextflow.Session - >>> barrier register (process: readStagedFile)
Oct-02 15:55:27.914 [main] DEBUG nextflow.processor.TaskProcessor - Creating operator > readStagedFile -- maxForks: 12
Oct-02 15:55:27.942 [main] DEBUG nextflow.processor.ProcessFactory - << taskConfig executor: null
Oct-02 15:55:27.942 [main] DEBUG nextflow.processor.ProcessFactory - >> processorType: 'local'
Oct-02 15:55:27.942 [main] DEBUG nextflow.executor.Executor - Initializing executor: local
Oct-02 15:55:27.943 [main] DEBUG nextflow.Session - >>> barrier register (process: splitLetters)
Oct-02 15:55:27.943 [main] DEBUG nextflow.processor.TaskProcessor - Creating operator > splitLetters -- maxForks: 12
Oct-02 15:55:27.950 [main] DEBUG nextflow.processor.ProcessFactory - << taskConfig executor: null
Oct-02 15:55:27.951 [main] DEBUG nextflow.processor.ProcessFactory - >> processorType: 'local'
Oct-02 15:55:27.951 [main] DEBUG nextflow.executor.Executor - Initializing executor: local
Oct-02 15:55:27.951 [main] DEBUG nextflow.Session - >>> barrier register (process: convertToUpper)
Oct-02 15:55:27.952 [main] DEBUG nextflow.processor.TaskProcessor - Creating operator > convertToUpper -- maxForks: 12
Oct-02 15:55:27.962 [main] DEBUG nextflow.script.ScriptRunner - > Await termination 
Oct-02 15:55:27.962 [main] DEBUG nextflow.Session - Session await
Oct-02 15:55:28.106 [Task submitter] DEBUG nextflow.executor.LocalTaskHandler - Launch cmd line: /bin/bash -ue .command.run
Oct-02 15:55:28.109 [Task submitter] INFO  nextflow.Session - [bd/e3aa47] Submitted process > splitLetters
Oct-02 15:55:28.205 [Task monitor] DEBUG n.processor.TaskPollingMonitor - Task completed > TaskHandler[id: 1; name: splitLetters; status: COMPLETED; exit: 0; error: -; workDir: /Users/rolf/ownCloud2/Scripts-CGE/nextflow/work/bd/e3aa4754d8822da660af37494e7bfb]
Oct-02 15:55:28.223 [Actor Thread 2] DEBUG nextflow.Session - <<< barrier arrive (process: splitLetters)
Oct-02 15:55:28.236 [Task submitter] DEBUG nextflow.executor.LocalTaskHandler - Launch cmd line: /bin/bash -ue .command.run
Oct-02 15:55:28.236 [Task submitter] INFO  nextflow.Session - [82/424e0e] Submitted process > convertToUpper (1)
Oct-02 15:55:28.244 [Task submitter] DEBUG nextflow.executor.LocalTaskHandler - Launch cmd line: /bin/bash -ue .command.run
Oct-02 15:55:28.245 [Task submitter] INFO  nextflow.Session - [1a/3fea28] Submitted process > convertToUpper (2)
Oct-02 15:55:28.296 [Task monitor] DEBUG n.processor.TaskPollingMonitor - Task completed > TaskHandler[id: 2; name: convertToUpper (1); status: COMPLETED; exit: 0; error: -; workDir: /Users/rolf/ownCloud2/Scripts-CGE/nextflow/work/82/424e0e6f4a27ca9b275d293185a487]
Oct-02 15:55:28.303 [Task monitor] DEBUG n.processor.TaskPollingMonitor - Task completed > TaskHandler[id: 3; name: convertToUpper (2); status: COMPLETED; exit: 0; error: -; workDir: /Users/rolf/ownCloud2/Scripts-CGE/nextflow/work/1a/3fea2845247d7177b6aa28285e366a]
Oct-02 15:55:28.304 [Actor Thread 5] DEBUG nextflow.Session - <<< barrier arrive (process: convertToUpper)
Oct-02 15:55:47.789 [Task submitter] INFO  nextflow.Session - [56/0908a5] Submitted process > readStagedFile (1)
Oct-02 15:55:47.798 [Task monitor] DEBUG n.processor.TaskPollingMonitor - Task completed > TaskHandler[id: 4; name: readStagedFile (1); status: COMPLETED; exit: -; error: -; workDir: /Users/rolf/ownCloud2/Scripts-CGE/nextflow/work/56/0908a5ded96e32c3c359b12e560fd7]
Oct-02 15:55:57.776 [SIGINT handler] DEBUG nextflow.Session - Session aborted -- Cause: SIGINT
Oct-02 15:55:57.791 [SIGINT handler] DEBUG nextflow.Session - The following nodes are still active:
[process] readStagedFile
  status=ACTIVE
  port 0: (queue) OPEN  ; channel: in_channel
  port 1: (cntrl) -     ; channel: $

Oct-02 15:55:57.792 [Task monitor] DEBUG n.processor.TaskPollingMonitor - <<< barrier arrives (monitor: local)
Oct-02 15:55:57.792 [main] DEBUG nextflow.Session - Session await > all process finished
Oct-02 15:55:57.793 [main] DEBUG nextflow.Session - Session await > all barriers passed
Oct-02 15:55:57.804 [main] DEBUG nextflow.trace.StatsObserver - Workflow completed > WorkflowStats[succeedCount=4; failedCount=0; ignoredCount=0; cachedCount=0; succeedDuration=27ms; failedDuration=0ms; cachedDuration=0ms]
Oct-02 15:55:57.814 [main] DEBUG nextflow.CacheDB - Closing CacheDB done
Oct-02 15:55:57.829 [main] DEBUG nextflow.script.ScriptRunner - > Execution complete -- Goodbye
