Oct-02 15:50:52.925 [main] DEBUG nextflow.cli.Launcher - $> /Users/rolf/envs/nextflow run tutorial.nf
Oct-02 15:50:53.037 [main] INFO  nextflow.cli.CmdRun - N E X T F L O W  ~  version 0.31.1
Oct-02 15:50:53.047 [main] INFO  nextflow.cli.CmdRun - Launching `tutorial.nf` [amazing_boyd] - revision: b41ea43a25
Oct-02 15:50:53.119 [main] DEBUG nextflow.Session - Session uuid: f8052a5c-114b-4087-adbb-1dedec3d3885
Oct-02 15:50:53.120 [main] DEBUG nextflow.Session - Run name: amazing_boyd
Oct-02 15:50:53.121 [main] DEBUG nextflow.Session - Executor pool size: 12
Oct-02 15:50:53.342 [main] DEBUG nextflow.cli.CmdRun - 
  Version: 0.31.1 build 4886
  Modified: 07-08-2018 15:53 UTC (17:53 CEST)
  System: Mac OS X 10.13.6
  Runtime: Groovy 2.4.15 on Java HotSpot(TM) 64-Bit Server VM 1.8.0_91-b14
  Encoding: UTF-8 (UTF-8)
  Process: 37725@Rolfs-MacBook-Pro.local [10.128.29.49]
  CPUs: 12 - Mem: 16 GB (101.2 MB) - Swap: 1 GB (993.5 MB)
Oct-02 15:50:53.349 [main] DEBUG nextflow.Session - Work-dir: /Users/rolf/ownCloud2/Scripts-CGE/nextflow/work [Mac OS X]
Oct-02 15:50:53.349 [main] DEBUG nextflow.Session - Script base path does not exist or is not a directory: /Users/rolf/ownCloud2/Scripts-CGE/nextflow/bin
Oct-02 15:50:53.421 [main] DEBUG nextflow.Session - Session start invoked
Oct-02 15:50:53.427 [main] DEBUG nextflow.processor.TaskDispatcher - Dispatcher > start
Oct-02 15:50:53.427 [main] DEBUG nextflow.script.ScriptRunner - > Script parsing
Oct-02 15:50:53.651 [main] DEBUG nextflow.script.ScriptRunner - > Launching execution
Oct-02 15:50:53.664 [main] DEBUG nextflow.file.DirWatcher - Watch service for path=/Users/rolf/ownCloud2/Scripts-CGE/nextflow/test3/; syntax=glob; pattern=*.staged_json; skipHidden=true; events=create
Oct-02 15:50:53.742 [main] DEBUG nextflow.processor.ProcessFactory - << taskConfig executor: null
Oct-02 15:50:53.742 [main] DEBUG nextflow.processor.ProcessFactory - >> processorType: 'local'
Oct-02 15:50:53.748 [main] DEBUG nextflow.executor.Executor - Initializing executor: local
Oct-02 15:50:53.750 [main] INFO  nextflow.executor.Executor - [warm up] executor > local
Oct-02 15:50:53.753 [main] DEBUG n.processor.LocalPollingMonitor - Creating local task monitor for executor 'local' > cpus=12; memory=16 GB; capacity=12; pollInterval=100ms; dumpInterval=5m
Oct-02 15:50:53.757 [main] DEBUG nextflow.processor.TaskDispatcher - Starting monitor: LocalPollingMonitor
Oct-02 15:50:53.758 [main] DEBUG n.processor.TaskPollingMonitor - >>> barrier register (monitor: local)
Oct-02 15:50:53.759 [main] DEBUG nextflow.executor.Executor - Invoke register for executor: local
Oct-02 15:50:53.823 [main] DEBUG nextflow.Session - >>> barrier register (process: readStagedFile)
Oct-02 15:50:53.825 [main] DEBUG nextflow.processor.TaskProcessor - Creating operator > readStagedFile -- maxForks: 12
Oct-02 15:50:53.858 [main] DEBUG nextflow.processor.ProcessFactory - << taskConfig executor: null
Oct-02 15:50:53.858 [main] DEBUG nextflow.processor.ProcessFactory - >> processorType: 'local'
Oct-02 15:50:53.858 [main] DEBUG nextflow.executor.Executor - Initializing executor: local
Oct-02 15:50:53.859 [main] DEBUG nextflow.Session - >>> barrier register (process: splitLetters)
Oct-02 15:50:53.859 [main] DEBUG nextflow.processor.TaskProcessor - Creating operator > splitLetters -- maxForks: 12
Oct-02 15:50:53.868 [main] DEBUG nextflow.processor.ProcessFactory - << taskConfig executor: null
Oct-02 15:50:53.868 [main] DEBUG nextflow.processor.ProcessFactory - >> processorType: 'local'
Oct-02 15:50:53.869 [main] DEBUG nextflow.executor.Executor - Initializing executor: local
Oct-02 15:50:53.869 [main] DEBUG nextflow.Session - >>> barrier register (process: convertToUpper)
Oct-02 15:50:53.870 [main] DEBUG nextflow.processor.TaskProcessor - Creating operator > convertToUpper -- maxForks: 12
Oct-02 15:50:53.882 [main] DEBUG nextflow.script.ScriptRunner - > Await termination 
Oct-02 15:50:53.883 [main] DEBUG nextflow.Session - Session await
Oct-02 15:50:54.022 [Task submitter] DEBUG nextflow.executor.LocalTaskHandler - Launch cmd line: /bin/bash -ue .command.run
Oct-02 15:50:54.026 [Task submitter] INFO  nextflow.Session - [d3/b8b9a8] Submitted process > splitLetters
Oct-02 15:50:54.120 [Task monitor] DEBUG n.processor.TaskPollingMonitor - Task completed > TaskHandler[id: 1; name: splitLetters; status: COMPLETED; exit: 0; error: -; workDir: /Users/rolf/ownCloud2/Scripts-CGE/nextflow/work/d3/b8b9a89500f8572cc077d219adbfd6]
Oct-02 15:50:54.139 [Actor Thread 2] DEBUG nextflow.Session - <<< barrier arrive (process: splitLetters)
Oct-02 15:50:54.157 [Task submitter] DEBUG nextflow.executor.LocalTaskHandler - Launch cmd line: /bin/bash -ue .command.run
Oct-02 15:50:54.158 [Task submitter] INFO  nextflow.Session - [5c/5994f1] Submitted process > convertToUpper (1)
Oct-02 15:50:54.168 [Task submitter] DEBUG nextflow.executor.LocalTaskHandler - Launch cmd line: /bin/bash -ue .command.run
Oct-02 15:50:54.169 [Task submitter] INFO  nextflow.Session - [d7/45fe36] Submitted process > convertToUpper (2)
Oct-02 15:50:54.227 [Task monitor] DEBUG n.processor.TaskPollingMonitor - Task completed > TaskHandler[id: 2; name: convertToUpper (1); status: COMPLETED; exit: 0; error: -; workDir: /Users/rolf/ownCloud2/Scripts-CGE/nextflow/work/5c/5994f16f3262fa9566cea49efe4e59]
Oct-02 15:50:54.234 [Task monitor] DEBUG n.processor.TaskPollingMonitor - Task completed > TaskHandler[id: 3; name: convertToUpper (2); status: COMPLETED; exit: 0; error: -; workDir: /Users/rolf/ownCloud2/Scripts-CGE/nextflow/work/d7/45fe367ff79bc68e4115a41fdc7918]
Oct-02 15:50:54.235 [Actor Thread 5] DEBUG nextflow.Session - <<< barrier arrive (process: convertToUpper)
Oct-02 15:51:13.699 [Task submitter] DEBUG nextflow.executor.LocalTaskHandler - Launch cmd line: /bin/bash -ue .command.run
Oct-02 15:51:13.699 [Task submitter] INFO  nextflow.Session - [b9/ad8b26] Submitted process > readStagedFile (1)
Oct-02 15:51:13.735 [Task monitor] DEBUG n.processor.TaskPollingMonitor - Task completed > TaskHandler[id: 4; name: readStagedFile (1); status: COMPLETED; exit: 127; error: -; workDir: /Users/rolf/ownCloud2/Scripts-CGE/nextflow/work/b9/ad8b26c9af1e2534a1f5ba4d317769]
Oct-02 15:51:13.756 [Task monitor] ERROR nextflow.processor.TaskProcessor - Error executing process > 'readStagedFile (1)'

Caused by:
  Process `readStagedFile (1)` terminated with an error exit status (127)

Command executed:

  null

Command exit status:
  127

Command output:
  (empty)

Command error:
  .command.sh: line 2: null: command not found

Work dir:
  /Users/rolf/ownCloud2/Scripts-CGE/nextflow/work/b9/ad8b26c9af1e2534a1f5ba4d317769

Tip: view the complete command output by changing to the process work dir and entering the command `cat .command.out`
Oct-02 15:51:13.759 [Task monitor] DEBUG nextflow.Session - Session aborted -- Cause: Process `readStagedFile (1)` terminated with an error exit status (127)
Oct-02 15:51:13.770 [Task monitor] DEBUG nextflow.Session - The following nodes are still active:
[process] readStagedFile
  status=ACTIVE
  port 0: (queue) OPEN  ; channel: in_channel
  port 1: (cntrl) -     ; channel: $

Oct-02 15:51:13.773 [main] DEBUG nextflow.Session - Session await > all process finished
Oct-02 15:51:13.773 [Task monitor] DEBUG n.processor.TaskPollingMonitor - <<< barrier arrives (monitor: local)
Oct-02 15:51:13.773 [main] DEBUG nextflow.Session - Session await > all barriers passed
Oct-02 15:51:13.782 [main] DEBUG nextflow.trace.StatsObserver - Workflow completed > WorkflowStats[succeedCount=3; failedCount=1; ignoredCount=0; cachedCount=0; succeedDuration=67ms; failedDuration=1ms; cachedDuration=0ms]
Oct-02 15:51:13.788 [main] DEBUG nextflow.CacheDB - Closing CacheDB done
Oct-02 15:51:13.803 [main] DEBUG nextflow.script.ScriptRunner - > Execution complete -- Goodbye
