Oct-02 15:52:09.682 [main] DEBUG nextflow.cli.Launcher - $> /Users/rolf/envs/nextflow run tutorial.nf
Oct-02 15:52:09.795 [main] INFO  nextflow.cli.CmdRun - N E X T F L O W  ~  version 0.31.1
Oct-02 15:52:09.803 [main] INFO  nextflow.cli.CmdRun - Launching `tutorial.nf` [distracted_pasteur] - revision: d91125e054
Oct-02 15:52:09.871 [main] DEBUG nextflow.Session - Session uuid: a42dfa23-2466-434c-9738-d6963bb2848d
Oct-02 15:52:09.872 [main] DEBUG nextflow.Session - Run name: distracted_pasteur
Oct-02 15:52:09.874 [main] DEBUG nextflow.Session - Executor pool size: 12
Oct-02 15:52:09.894 [main] DEBUG nextflow.cli.CmdRun - 
  Version: 0.31.1 build 4886
  Modified: 07-08-2018 15:53 UTC (17:53 CEST)
  System: Mac OS X 10.13.6
  Runtime: Groovy 2.4.15 on Java HotSpot(TM) 64-Bit Server VM 1.8.0_91-b14
  Encoding: UTF-8 (UTF-8)
  Process: 37869@Rolfs-MacBook-Pro.local [10.128.29.49]
  CPUs: 12 - Mem: 16 GB (74.5 MB) - Swap: 1 GB (993.5 MB)
Oct-02 15:52:09.901 [main] DEBUG nextflow.Session - Work-dir: /Users/rolf/ownCloud2/Scripts-CGE/nextflow/work [Mac OS X]
Oct-02 15:52:09.901 [main] DEBUG nextflow.Session - Script base path does not exist or is not a directory: /Users/rolf/ownCloud2/Scripts-CGE/nextflow/bin
Oct-02 15:52:09.975 [main] DEBUG nextflow.Session - Session start invoked
Oct-02 15:52:09.981 [main] DEBUG nextflow.processor.TaskDispatcher - Dispatcher > start
Oct-02 15:52:09.982 [main] DEBUG nextflow.script.ScriptRunner - > Script parsing
Oct-02 15:52:10.171 [main] DEBUG nextflow.script.ScriptRunner - > Launching execution
Oct-02 15:52:10.184 [main] DEBUG nextflow.file.DirWatcher - Watch service for path=/Users/rolf/ownCloud2/Scripts-CGE/nextflow/test3/; syntax=glob; pattern=*.staged_json; skipHidden=true; events=create
Oct-02 15:52:10.259 [main] DEBUG nextflow.Session - Session aborted -- Cause: Unknown process directive: `$`
Oct-02 15:52:10.334 [main] ERROR nextflow.cli.Launcher - @unknown
nextflow.exception.IllegalDirectiveException: Unknown process directive: `$`
	at sun.reflect.NativeConstructorAccessorImpl.newInstance0(Native Method)
	at sun.reflect.NativeConstructorAccessorImpl.newInstance(NativeConstructorAccessorImpl.java:62)
	at sun.reflect.DelegatingConstructorAccessorImpl.newInstance(DelegatingConstructorAccessorImpl.java:45)
	at java.lang.reflect.Constructor.newInstance(Constructor.java:423)
	at org.codehaus.groovy.reflection.CachedConstructor.invoke(CachedConstructor.java:83)
	at org.codehaus.groovy.runtime.callsite.ConstructorSite$ConstructorSiteNoUnwrapNoCoerce.callConstructor(ConstructorSite.java:105)
	at org.codehaus.groovy.runtime.callsite.CallSiteArray.defaultCallConstructor(CallSiteArray.java:59)
	at org.codehaus.groovy.runtime.callsite.AbstractCallSite.callConstructor(AbstractCallSite.java:238)
	at org.codehaus.groovy.runtime.callsite.AbstractCallSite.callConstructor(AbstractCallSite.java:250)
	at nextflow.processor.ProcessConfig.checkName(ProcessConfig.groovy:214)
	at nextflow.processor.ProcessConfig.methodMissing(ProcessConfig.groovy:233)
	at sun.reflect.NativeMethodAccessorImpl.invoke0(Native Method)
	at sun.reflect.NativeMethodAccessorImpl.invoke(NativeMethodAccessorImpl.java:62)
	at sun.reflect.DelegatingMethodAccessorImpl.invoke(DelegatingMethodAccessorImpl.java:43)
	at java.lang.reflect.Method.invoke(Method.java:498)
	at org.codehaus.groovy.reflection.CachedMethod.invoke(CachedMethod.java:98)
	at groovy.lang.MetaClassImpl.invokeMissingMethod(MetaClassImpl.java:951)
	at groovy.lang.MetaClassImpl.invokePropertyOrMissing(MetaClassImpl.java:1279)
	at groovy.lang.MetaClassImpl.invokeMethod(MetaClassImpl.java:1227)
	at groovy.lang.MetaClassImpl.invokeMethod(MetaClassImpl.java:1034)
	at groovy.lang.MetaObjectProtocol$invokeMethod.call(Unknown Source)
	at org.codehaus.groovy.runtime.callsite.CallSiteArray.defaultCall(CallSiteArray.java:47)
	at org.codehaus.groovy.runtime.callsite.AbstractCallSite.call(AbstractCallSite.java:116)
	at org.codehaus.groovy.runtime.callsite.AbstractCallSite.call(AbstractCallSite.java:144)
	at nextflow.processor.ProcessConfig.invokeMethod(ProcessConfig.groovy:229)
	at org.codehaus.groovy.runtime.metaclass.ClosureMetaClass.invokeOnDelegationObjects(ClosureMetaClass.java:398)
	at org.codehaus.groovy.runtime.metaclass.ClosureMetaClass.invokeMethod(ClosureMetaClass.java:340)
	at groovy.lang.MetaClassImpl.invokeMethod(MetaClassImpl.java:1034)
	at org.codehaus.groovy.runtime.callsite.PogoMetaClassSite.callCurrent(PogoMetaClassSite.java:68)
	at org.codehaus.groovy.runtime.callsite.CallSiteArray.defaultCallCurrent(CallSiteArray.java:51)
	at org.codehaus.groovy.runtime.callsite.AbstractCallSite.callCurrent(AbstractCallSite.java:157)
	at org.codehaus.groovy.runtime.callsite.AbstractCallSite.callCurrent(AbstractCallSite.java:169)
	at groovy.json._nf_script_87af3615$_run_closure2.doCall(_nf_script_87af3615:29)
	at groovy.json._nf_script_87af3615$_run_closure2.doCall(_nf_script_87af3615)
	at sun.reflect.NativeMethodAccessorImpl.invoke0(Native Method)
	at sun.reflect.NativeMethodAccessorImpl.invoke(NativeMethodAccessorImpl.java:62)
	at sun.reflect.DelegatingMethodAccessorImpl.invoke(DelegatingMethodAccessorImpl.java:43)
	at java.lang.reflect.Method.invoke(Method.java:498)
	at org.codehaus.groovy.reflection.CachedMethod.invoke(CachedMethod.java:98)
	at groovy.lang.MetaMethod.doMethodInvoke(MetaMethod.java:325)
	at org.codehaus.groovy.runtime.metaclass.ClosureMetaClass.invokeMethod(ClosureMetaClass.java:264)
	at groovy.lang.MetaClassImpl.invokeMethod(MetaClassImpl.java:1034)
	at org.codehaus.groovy.runtime.callsite.PogoMetaClassSite.call(PogoMetaClassSite.java:41)
	at org.codehaus.groovy.runtime.callsite.CallSiteArray.defaultCall(CallSiteArray.java:47)
	at org.codehaus.groovy.runtime.callsite.AbstractCallSite.call(AbstractCallSite.java:116)
	at org.codehaus.groovy.runtime.callsite.AbstractCallSite.call(AbstractCallSite.java:120)
	at nextflow.processor.ProcessFactory.createProcessor(ProcessFactory.groovy:220)
	at nextflow.processor.ProcessFactory.createProcessor(ProcessFactory.groovy)
	at nextflow.processor.ProcessFactory$createProcessor.call(Unknown Source)
	at org.codehaus.groovy.runtime.callsite.CallSiteArray.defaultCall(CallSiteArray.java:47)
	at org.codehaus.groovy.runtime.callsite.AbstractCallSite.call(AbstractCallSite.java:116)
	at org.codehaus.groovy.runtime.callsite.AbstractCallSite.call(AbstractCallSite.java:136)
	at nextflow.script.BaseScript.process(BaseScript.groovy:150)
	at sun.reflect.NativeMethodAccessorImpl.invoke0(Native Method)
	at sun.reflect.NativeMethodAccessorImpl.invoke(NativeMethodAccessorImpl.java:62)
	at sun.reflect.DelegatingMethodAccessorImpl.invoke(DelegatingMethodAccessorImpl.java:43)
	at java.lang.reflect.Method.invoke(Method.java:498)
	at org.codehaus.groovy.runtime.callsite.PogoMetaMethodSite$PogoCachedMethodSiteNoUnwrapNoCoerce.invoke(PogoMetaMethodSite.java:210)
	at org.codehaus.groovy.runtime.callsite.PogoMetaMethodSite.callCurrent(PogoMetaMethodSite.java:59)
	at org.codehaus.groovy.runtime.callsite.CallSiteArray.defaultCallCurrent(CallSiteArray.java:51)
	at org.codehaus.groovy.runtime.callsite.AbstractCallSite.callCurrent(AbstractCallSite.java:157)
	at org.codehaus.groovy.runtime.callsite.AbstractCallSite.callCurrent(AbstractCallSite.java:177)
	at groovy.json._nf_script_87af3615.run(_nf_script_87af3615:24)
	at nextflow.script.ScriptRunner.run(ScriptRunner.groovy:379)
	at nextflow.script.ScriptRunner.execute(ScriptRunner.groovy:168)
	at nextflow.cli.CmdRun.run(CmdRun.groovy:235)
	at nextflow.cli.Launcher.run(Launcher.groovy:432)
	at nextflow.cli.Launcher.main(Launcher.groovy:590)
